%YAML 1.1
%TAG !u! tag:unity3d.com,2011:
--- !u!1 &189238281429446200
GameObject:
  m_ObjectHideFlags: 0
  m_CorrespondingSourceObject: {fileID: 0}
  m_PrefabInstance: {fileID: 0}
  m_PrefabAsset: {fileID: 0}
  serializedVersion: 6
  m_Component:
  - component: {fileID: 189238281429446202}
  - component: {fileID: 189238281429446201}
  - component: {fileID: 189238281429446203}
  m_Layer: 0
  m_Name: AIControl
  m_TagString: Untagged
  m_Icon: {fileID: 0}
  m_NavMeshLayer: 0
  m_StaticEditorFlags: 0
  m_IsActive: 1
--- !u!4 &189238281429446202
Transform:
  m_ObjectHideFlags: 0
  m_CorrespondingSourceObject: {fileID: 0}
  m_PrefabInstance: {fileID: 0}
  m_PrefabAsset: {fileID: 0}
  m_GameObject: {fileID: 189238281429446200}
  m_LocalRotation: {x: 0, y: 0, z: 0, w: 1}
  m_LocalPosition: {x: 0, y: 1, z: 0}
  m_LocalScale: {x: 1, y: 1, z: 1}
  m_Children: []
  m_Father: {fileID: 0}
  m_RootOrder: 0
  m_LocalEulerAnglesHint: {x: 0, y: 0, z: 0}
--- !u!114 &189238281429446201
MonoBehaviour:
  m_ObjectHideFlags: 0
  m_CorrespondingSourceObject: {fileID: 0}
  m_PrefabInstance: {fileID: 0}
  m_PrefabAsset: {fileID: 0}
  m_GameObject: {fileID: 189238281429446200}
  m_Enabled: 1
  m_EditorHideFlags: 0
  m_Script: {fileID: 11500000, guid: 2c4993ab72ded814688db1a6a601ee70, type: 3}
  m_Name: 
  m_EditorClassIdentifier: 
  data: {fileID: 493278649, guid: 577acf670b1ccb044bc4e5109867c04e, type: 3}
  points:
  - {fileID: 351086170449955205, guid: e71eb8e1c1a70d949bd076448e3ce86f, type: 3}
  - {fileID: 3537341791396414212, guid: cf44ac6a5c749004d8fc61f3d92a827c, type: 3}
  - {fileID: 350560194269300802, guid: 2f749c775dd266940ace4c3c31369645, type: 3}
  - {fileID: 8705856195181678776, guid: cdeba2e9ee5b0544d9de10c5812f61b2, type: 3}
  curPoint: 0
  closeEnough: 0.5
  isMoving: 1
  perCon: {fileID: 189238281429446203}
  order: 0
  isAdvancing: 1
  showNextPoint: 0
--- !u!114 &189238281429446203
MonoBehaviour:
  m_ObjectHideFlags: 0
  m_CorrespondingSourceObject: {fileID: 0}
  m_PrefabInstance: {fileID: 0}
  m_PrefabAsset: {fileID: 0}
  m_GameObject: {fileID: 189238281429446200}
  m_Enabled: 1
  m_EditorHideFlags: 0
  m_Script: {fileID: 11500000, guid: 60311d793e705004188608ccd9360bdb, type: 3}
  m_Name: 
  m_EditorClassIdentifier: 
  data: {fileID: 493278649, guid: 577acf670b1ccb044bc4e5109867c04e, type: 3}
  avoid: 0
  curState: 1
  obsTime: 0
  obsDur: 0
  obsDis: 0
  cautionTimer: 0
  cautionDis: 0
  waitTime: 0
  chaseDis: 0
  fleeTime: 0
  chaseFleeHealRate: 0
  waitHealRate: 0
  chaseFleeHealthPer: 0
  inCurrent: 0
